Dimensionality Reduction
…
# creating data frame for numeric columns
df_num <- df[ , num_cols]                        # Subset numeric columns of data
df_num

## # A tibble: 1,000 x 8
##    `Unit price` Quantity   Tax  cogs `gross margin percen~ `gross income` Rating
##           <dbl>    <dbl> <dbl> <dbl>                 <dbl>          <dbl>  <dbl>
##  1         74.7        7 26.1  523.                   4.76          26.1     9.1
##  2         15.3        5  3.82  76.4                  4.76           3.82    9.6
##  3         46.3        7 16.2  324.                   4.76          16.2     7.4
##  4         58.2        8 23.3  466.                   4.76          23.3     8.4
##  5         86.3        7 30.2  604.                   4.76          30.2     5.3
##  6         85.4        7 29.9  598.                   4.76          29.9     4.1
##  7         68.8        6 20.7  413.                   4.76          20.7     5.8
##  8         73.6       10 36.8  736.                   4.76          36.8     8  
##  9         36.3        2  3.63  72.5                  4.76           3.63    7.2
## 10         54.8        3  8.23 165.                   4.76           8.23    5.9
## # ... with 990 more rows, and 1 more variable: Total <dbl>
…
